{
  "type": "service_account",
  "project_id": "dekape-attendance",
  "private_key_id": "b4d94505dbc33274c770072f5a3c937b530ad341",
  "private_key": "-----BEGIN PRIVATE KEY-----\nMIIEvQIBADANBgkqhkiG9w0BAQEFAASCBKcwggSjAgEAAoIBAQCK5uIonFfQjWbw\nL2f19iwFLlU5wkzUzadCMjRFIqd0xo9kF5kEVFIuS7ZL+ImWW/AiESw+QUpi2nH7\nc7XLWLeAg5FLh3pRBeQ1khwasH4l2ojOrpAntTun6s52/ZR0FritJGOxkbmnxSu3\n094S7QDujkM5dYcUC2UCWBgs70CrFzDZj+zLEkAToZRs4g8wAkTvYeNSFYUBtQ1I\nxhcF/XM/K+sZAsVbfdFBfC6ovpCKBadJKJHedlCCyRvCo3E4geCaWSvxQb1HYChI\nhNe5wz/l8yNqC2uLJ2UNNBDEiCPnTPNxIGO57p0DyDLRHAwjS4fNb9acEYU0Huec\n72l+bi7xAgMBAAECggEADK1s99LpKuY0/nf9L5RDyUdEzQxAUe3hNaf6YFL84Koc\nvUBwHVaK16HeZgmtmRUUEi/qD1aLMQGKBK63aXNT8D1R3ghj8BAvF3qZ6Q+xu8e5\n089X5d/jLXy/UlnrmjrWqSrYlITd4oOa7WC/dI/AFYXTeeORrBEsK24Z6sP9bYAC\nbE0XJ1K4PRacy53OUPTSOxrpA8NGiDgkr+W8+SASsbg5Ck7EJm9JdJnQRhhK2EHo\ncTf7dc7L1BmQHIjSebcUqWxQcoZEQBhD5JA1XptP53KZLqcn3dpHX+UtggtocMP2\nx5Dk5xaT4tzOqEAMB38HKNu777tFqJcAPdIxYPq/HwKBgQDCBpfinkYGy82S7Cmr\n6xUjIpSkqaKW8QHFeVCA2rUG7aB9K34ySAlNZ1IVjMq3cTrkKFAPG9ZvNbC7IUd3\nrDHD1jRF/c/uNDJj5KkDWXRPou5nw1ShKLdKywcXclRwb2/Wz8eEPWuoxDxsEKPq\nj6EE76LSz+B5Xq0DSUvwhlltmwKBgQC3RNWGS3Jt+VIICoyFpY9Ju/nQfKdNhx3a\nZNnkBo9IspKbw4prF+4nSJhEYezq0DdVc46s7QbpdXAFH2dxxJG/1CxZytdFzeMb\nABy3FqTmK+2zqJUr4SMTo39di8ULu6OyD3Xpx7sg3kya0QuEhoDGnxr7N8zAmYUd\nnsu3Ub0kYwKBgDBd1mTukYRGL7PNXUH28yj0CNvXUamQ4KEqca/9VR0qBVTOj8HX\nBUKfW+31T99UwZp4liR+CwFj/+9WB2vEqA8qiZNdBwVZS6ptKNil5wGnGwkQvzsB\nXFevrs/gdz4j+VwyJYlIilriuDE0ILhrH3eMiSlGGq4GtNhZ4C1QQGC7AoGBAKoM\nI3d1P9rM0JGHgDVtldNbqIMLdozYBxoiI46Ri5dvodsHh8KwtJgcorQojJSf2Afg\nrgzD7XrnLaaDKg+EzZvJedFjBXXOgKAH7ZzwVNcBAZCGpsrNHifVt5ML4ixt0Yih\nEc52NapcuYWY2+/+gTRKYtWgQ8qdZ8dBFVKmdDJzAoGAVzH5irYReWlsutTyxHSh\nn/PfH3W6dYU3FDwjs159nWlhgeWT86J5lWH6HEBTBc2DL+3TrGdf4hTIK0oo5jn5\n1itrwJgFkLbhLgzFuHjwgZNF8EVZlDcYF/RTngdHKi0VSiKmb54/85ymAjWcfOeO\nbBLljn9T9i+HFh8FVRW64hM=\n-----END PRIVATE KEY-----\n",
  "client_email": "firebase-adminsdk-46bay@dekape-attendance.iam.gserviceaccount.com",
  "client_id": "111150079699092209916",
  "auth_uri": "https://accounts.google.com/o/oauth2/auth",
  "token_uri": "https://oauth2.googleapis.com/token",
  "auth_provider_x509_cert_url": "https://www.googleapis.com/oauth2/v1/certs",
  "client_x509_cert_url": "https://www.googleapis.com/robot/v1/metadata/x509/firebase-adminsdk-46bay%40dekape-attendance.iam.gserviceaccount.com"
}
